{
    "directed": false,
    "graph": {},
    "links": [
        {
            "source": 0,
            "target": 1
        },
        {
            "source": 0,
            "target": 2
        },
        {
            "source": 0,
            "target": 6
        },
        {
            "source": 0,
            "target": 10
        },
        {
            "source": 0,
            "target": 11
        },
        {
            "source": 0,
            "target": 12
        },
        {
            "source": 0,
            "target": 14
        },
        {
            "source": 1,
            "target": 2
        },
        {
            "source": 1,
            "target": 6
        },
        {
            "source": 1,
            "target": 7
        },
        {
            "source": 1,
            "target": 15
        },
        {
            "source": 1,
            "target": 10
        },
        {
            "source": 1,
            "target": 16
        },
        {
            "source": 1,
            "target": 17
        },
        {
            "source": 1,
            "target": 18
        },
        {
            "source": 2,
            "target": 6
        },
        {
            "source": 2,
            "target": 9
        },
        {
            "source": 2,
            "target": 10
        },
        {
            "source": 3,
            "target": 5
        },
        {
            "source": 3,
            "target": 8
        },
        {
            "source": 4,
            "target": 5
        },
        {
            "source": 4,
            "target": 8
        },
        {
            "source": 4,
            "target": 19
        },
        {
            "source": 5,
            "target": 19
        },
        {
            "source": 7,
            "target": 14
        },
        {
            "source": 7,
            "target": 18
        },
        {
            "source": 7,
            "target": 20
        },
        {
            "source": 10,
            "target": 20
        },
        {
            "source": 12,
            "target": 20
        },
        {
            "source": 13,
            "target": 29
        },
        {
            "source": 13,
            "target": 27
        },
        {
            "source": 13,
            "target": 17
        },
        {
            "source": 13,
            "target": 18
        },
        {
            "source": 13,
            "target": 20
        },
        {
            "source": 14,
            "target": 18
        },
        {
            "source": 14,
            "target": 20
        },
        {
            "source": 15,
            "target": 20
        },
        {
            "source": 16,
            "target": 26
        },
        {
            "source": 16,
            "target": 29
        },
        {
            "source": 16,
            "target": 20
        },
        {
            "source": 17,
            "target": 20
        },
        {
            "source": 18,
            "target": 21
        },
        {
            "source": 18,
            "target": 22
        },
        {
            "source": 18,
            "target": 23
        },
        {
            "source": 18,
            "target": 24
        },
        {
            "source": 18,
            "target": 25
        },
        {
            "source": 18,
            "target": 26
        },
        {
            "source": 18,
            "target": 28
        },
        {
            "source": 18,
            "target": 20
        },
        {
            "source": 20,
            "target": 21
        },
        {
            "source": 20,
            "target": 22
        },
        {
            "source": 20,
            "target": 23
        },
        {
            "source": 20,
            "target": 24
        },
        {
            "source": 20,
            "target": 25
        },
        {
            "source": 20,
            "target": 26
        },
        {
            "source": 20,
            "target": 30
        },
        {
            "source": 20,
            "target": 28
        },
        {
            "source": 26,
            "target": 27
        },
        {
            "source": 26,
            "target": 28
        },
        {
            "source": 27,
            "target": 29
        },
        {
            "source": 28,
            "target": 30
        }
    ],
    "multigraph": false,
    "nodes": [
        {
            "id": "1",
            "test": false,
            "val": false
        },
        {
            "id": "2",
            "test": false,
            "val": false
        },
        {
            "id": "3",
            "test": false,
            "val": false
        },
        {
            "id": "4",
            "test": false,
            "val": false
        },
        {
            "id": "5",
            "test": false,
            "val": false
        },
        {
            "id": "6",
            "test": false,
            "val": false
        },
        {
            "id": "7",
            "test": false,
            "val": false
        },
        {
            "id": "8",
            "test": false,
            "val": false
        },
        {
            "id": "9",
            "test": false,
            "val": false
        },
        {
            "id": "11",
            "test": false,
            "val": false
        },
        {
            "id": "12",
            "test": false,
            "val": false
        },
        {
            "id": "13",
            "test": false,
            "val": false
        },
        {
            "id": "14",
            "test": false,
            "val": false
        },
        {
            "id": "16",
            "test": false,
            "val": false
        },
        {
            "id": "17",
            "test": false,
            "val": false
        },
        {
            "id": "18",
            "test": false,
            "val": false
        },
        {
            "id": "19",
            "test": false,
            "val": false
        },
        {
            "id": "20",
            "test": false,
            "val": false
        },
        {
            "id": "21",
            "test": false,
            "val": false
        },
        {
            "id": "22",
            "test": false,
            "val": false
        },
        {
            "id": "23",
            "test": false,
            "val": false
        },
        {
            "id": "24",
            "test": false,
            "val": false
        },
        {
            "id": "25",
            "test": false,
            "val": false
        },
        {
            "id": "26",
            "test": false,
            "val": false
        },
        {
            "id": "27",
            "test": false,
            "val": false
        },
        {
            "id": "28",
            "test": false,
            "val": false
        },
        {
            "id": "29",
            "test": false,
            "val": false
        },
        {
            "id": "30",
            "test": false,
            "val": false
        },
        {
            "id": "31",
            "test": false,
            "val": false
        },
        {
            "id": "32",
            "test": false,
            "val": false
        },
        {
            "id": "33",
            "test": false,
            "val": false
        }
    ]
}